{
    "_id": "ByRyBRjNBcK5rwQ9",
    "data": {
        "baseItem": null,
        "brokenThreshold": {
            "value": 0
        },
        "bulkCapacity": {
            "value": ""
        },
        "collapsed": {
            "value": false
        },
        "containerId": {
            "value": ""
        },
        "description": {
            "value": "<p>This polished crystal sphere enhances scrying magic. Any visual information received through a spell with the scrying trait that was cast by the <em>crystal ball</em> appears within the sphere, and any auditory information sounds out from the surface of the sphere. When you cast a <em>@Compendium[pf2e.spells-srd.Scrying]{Scrying}</em> spell by any other means while holding the sphere, you can relay any information you receive in the same way, allowing others to see or hear the target.</p>\n<p>The base version of a <em>crystal ball</em> is a sphere of clear quartz, but other versions are made of different stones.</p>\n<hr />\n<p><strong>Activate</strong> 1 minute (command, envision, Interact)</p>\n<p><strong>Frequency</strong> once per hour</p>\n<p><strong>Effect</strong> The <em>crystal ball</em> casts <em>@Compendium[pf2e.spells-srd.Clairvoyance]{Clairvoyance}</em> to your specifications.</p>\n<hr />\n<p><strong>Activate</strong> 10 minutes (command, envision, Interact)</p>\n<p><strong>Frequency</strong> twice per day</p>\n<p><strong>Effect</strong> The <em>crystal ball</em> casts a DC 39 <em>@Compendium[pf2e.spells-srd.Scrying]{Scrying}</em> spell to your specifications, and you gain the benefits of <em>@Compendium[pf2e.spells-srd.Telepathy]{Telepathy}</em> on the target.</p>"
        },
        "equipped": {
            "value": false
        },
        "equippedBulk": {
            "value": ""
        },
        "hardness": {
            "value": 0
        },
        "hp": {
            "value": 0
        },
        "identification": {
            "misidentified": {},
            "status": "identified",
            "unidentified": {
                "data": {
                    "description": {
                        "value": ""
                    }
                },
                "img": "",
                "name": ""
            }
        },
        "invested": {
            "value": false
        },
        "level": {
            "value": 17
        },
        "maxHp": {
            "value": 0
        },
        "negateBulk": {
            "value": ""
        },
        "preciousMaterial": {
            "value": ""
        },
        "preciousMaterialGrade": {
            "value": ""
        },
        "price": {
            "value": "12,500 gp"
        },
        "quantity": {
            "value": 1
        },
        "rules": [],
        "size": {
            "value": "med"
        },
        "source": {
            "value": "Pathfinder Core Rulebook"
        },
        "stackGroup": {
            "value": ""
        },
        "traits": {
            "custom": "",
            "rarity": {
                "value": "uncommon"
            },
            "value": [
                "divination",
                "magical",
                "scrying"
            ]
        },
        "usage": {
            "value": "held-in-one-hand"
        },
        "weight": {
            "value": "L"
        }
    },
    "effects": [],
    "flags": {},
    "img": "systems/pf2e/icons/equipment/held-items/crystal-ball-peridot.webp",
    "name": "Crystal Ball (Peridot)",
    "type": "equipment"
}
