{
    "_id": "4CnzS57PB3Em02YN",
    "data": {
        "baseItem": null,
        "brokenThreshold": {
            "value": 0
        },
        "bulkCapacity": {
            "value": ""
        },
        "collapsed": {
            "value": false
        },
        "containerId": {
            "value": null
        },
        "description": {
            "value": "<p>This pamphlet-sized book records the various symbols seen on fulu and also contains some ready-made magic on a special page that restores itself every day at sunrise. Using the compendium as a reference grants a +2 item bonus to any skill checks to determine a fulu's function or authenticity.</p>\n<hr />\n<p><strong>Activate</strong> <span class=\"pf2-icon\">2</span> Interact;</p>\n<p><strong>Frequency</strong> once per day;</p>\n<p><strong>Effect</strong> You rip a page from the fulu compendium and cast it in a wide arc; as it flies in that arc, it multiplies into a storm of fulus. All undead creatures in a 30-foot emanation are affected by a @Compendium[pf2e.equipment-srd.Spirit-Sealing Fulu]{Spirit-Sealing Fulu} with a <span data-pf2-check=\"will\" data-pf2-traits=\"fulu\" data-pf2-label=\"spirit-sealing fulu DC\" data-pf2-dc=\"25\" data-pf2-show-dc=\"all\">Will</span> save DC of 25.</p>"
        },
        "equipped": {
            "value": false
        },
        "equippedBulk": {
            "value": ""
        },
        "hardness": {
            "value": 0
        },
        "hp": {
            "value": 0
        },
        "identification": {
            "misidentified": {},
            "status": "identified",
            "unidentified": {
                "data": {
                    "description": {
                        "value": ""
                    }
                },
                "img": "",
                "name": ""
            }
        },
        "invested": {
            "value": null
        },
        "level": {
            "value": 9
        },
        "maxHp": {
            "value": 0
        },
        "negateBulk": {
            "value": "0"
        },
        "preciousMaterial": {
            "value": null
        },
        "preciousMaterialGrade": {
            "value": null
        },
        "price": {
            "value": "550 gp"
        },
        "quantity": {
            "value": 1
        },
        "rules": [],
        "size": {
            "value": "med"
        },
        "source": {
            "value": "Pathfinder Secrets of Magic"
        },
        "stackGroup": {
            "value": ""
        },
        "traits": {
            "custom": "",
            "rarity": {
                "value": "uncommon"
            },
            "value": [
                "magical",
                "necromancy"
            ]
        },
        "usage": {
            "value": "held-in-one-hand"
        },
        "weight": {
            "value": "-"
        }
    },
    "effects": [],
    "flags": {},
    "img": "systems/pf2e/icons/default-icons/equipment.svg",
    "name": "Fulu Compendium",
    "type": "equipment"
}
