{
    "_id": "qtlkftQXfO4wuCVu",
    "data": {
        "MAP": {
            "value": ""
        },
        "baseItem": "dart",
        "bonus": {
            "value": 0
        },
        "bonusDamage": {
            "value": 0
        },
        "brokenThreshold": {
            "value": 0
        },
        "bulkCapacity": {
            "value": ""
        },
        "category": "simple",
        "collapsed": {
            "value": false
        },
        "containerId": {
            "value": ""
        },
        "damage": {
            "damageType": "piercing",
            "dice": 1,
            "die": "d4",
            "value": ""
        },
        "description": {
            "value": "<p>The harrow is a traditional fortunetelling deck used by Varisian soothsayers. The hardened harrow deck is a magical version of the deck with cards made of thin metallic plates adorned with all the imagery common in standard harrow decks, but with more angular designs. You can hurl cards from the hardened harrow deck as +2 greater striking darts with the deadly d10 trait. A card used as a weapon isn't destroyed and can be recovered with 1 minute of searching if it can't be recalled back to the deck (see the deck's Activate entry below). However, if even a single card is missing from the deck, the deck can't be used to perform a traditional harrow reading.</p>\n<hr />\n<p>As long as you carry more than half the cards in the hardened harrow deck, when you roll a success on a saving throw against a fear effect, you get a critical success instead; if you already have an ability that would make a successful saving throw against a fear effect a critical success, you instead gain a +1 circumstance bonus to saving throws against fear effects.</p>\n<hr />\n<p><strong>Activate</strong> <span class=\"pf2-icon\">1</span> command, Interact; <strong>Effect</strong> All cards from the hardened harrow deck within 60 feet that you can see fly back into the deck.</p>"
        },
        "equipped": {
            "value": false
        },
        "equippedBulk": {
            "value": ""
        },
        "group": "dart",
        "hands": {
            "value": ""
        },
        "hardness": {
            "value": 0
        },
        "hp": {
            "value": 0
        },
        "identification": {
            "misidentified": {},
            "status": "identified",
            "unidentified": {
                "data": {
                    "description": {
                        "value": ""
                    }
                },
                "img": "",
                "name": ""
            }
        },
        "invested": {
            "value": false
        },
        "level": {
            "value": 14
        },
        "maxHp": {
            "value": 0
        },
        "negateBulk": {
            "value": "0"
        },
        "potencyRune": {
            "value": 2
        },
        "preciousMaterial": {
            "value": null
        },
        "preciousMaterialGrade": {
            "value": null
        },
        "price": {
            "value": "4,350 gp"
        },
        "property1": {
            "critDamage": "",
            "critDamageType": "",
            "critDice": 0,
            "critDie": "",
            "criticalConditionType": "",
            "criticalConditionValue": null,
            "damageType": "",
            "dice": null,
            "die": "",
            "strikeConditionType": "",
            "strikeConditionValue": null,
            "value": ""
        },
        "propertyRune1": {
            "value": null
        },
        "propertyRune2": {
            "value": null
        },
        "propertyRune3": {
            "value": null
        },
        "propertyRune4": {
            "value": null
        },
        "quantity": {
            "value": 1
        },
        "range": null,
        "reload": {
            "value": "-"
        },
        "rules": [],
        "size": {
            "value": "med"
        },
        "source": {
            "value": "Pathfinder #160: Assault on Hunting Lodge Seven"
        },
        "specific": {
            "material": null,
            "runes": {
                "potency": 2,
                "striking": "greaterStriking"
            },
            "value": true
        },
        "splashDamage": {
            "value": 0
        },
        "stackGroup": {
            "value": ""
        },
        "strikingRune": {
            "value": "greaterStriking"
        },
        "traits": {
            "custom": "",
            "rarity": {
                "value": "rare"
            },
            "value": [
                "agile",
                "deadly-d10",
                "thrown"
            ]
        },
        "usage": {
            "value": "held-in-one-hand"
        },
        "weight": {
            "value": "L"
        }
    },
    "effects": [],
    "flags": {},
    "img": "systems/pf2e/icons/equipment/weapons/specific-magic-weapons/hardened-harrow-deck.webp",
    "name": "Hardened Harrow Deck",
    "type": "weapon"
}
