{
    "_id": "eQM5hQ1W3d1uen97",
    "data": {
        "actionCategory": {
            "value": "offensive"
        },
        "actionType": {
            "value": "action"
        },
        "actions": {
            "value": 1
        },
        "description": {
            "value": "<p>@Localize[PF2E.NPC.Abilities.Glossary.ChangeShape]</p>"
        },
        "requirements": {
            "value": ""
        },
        "rules": [],
        "source": {
            "value": ""
        },
        "traits": {
            "custom": "[magical tradition]",
            "rarity": {
                "value": "common"
            },
            "value": [
                "concentrate",
                "polymorph",
                "transmutation"
            ]
        },
        "trigger": {
            "value": ""
        },
        "weapon": {
            "value": ""
        }
    },
    "effects": [],
    "flags": {},
    "img": "systems/pf2e/icons/actions/OneAction.webp",
    "name": "Change Shape",
    "type": "action"
}
