{
    "_id": "yP45Rqu4jvCfXBkp",
    "data": {
        "description": {
            "value": "<p>You gain resistance 15 to fire and cold for 10 minutes.</p>"
        },
        "duration": {
            "expiry": "turn-end",
            "sustained": false,
            "unit": "minutes",
            "value": 10
        },
        "level": {
            "value": 17
        },
        "rules": [
            {
                "key": "Resistance",
                "type": "fire",
                "value": 15
            },
            {
                "key": "Resistance",
                "type": "cold",
                "value": 15
            }
        ],
        "source": {
            "value": ""
        },
        "start": {
            "initiative": null,
            "value": 0
        },
        "target": null,
        "tokenIcon": {
            "show": true
        },
        "traits": {
            "custom": "",
            "rarity": {
                "value": "common"
            },
            "value": []
        }
    },
    "effects": [],
    "flags": {},
    "img": "systems/pf2e/icons/default-icons/effect.svg",
    "name": "Effect: Fire and Iceberg (Major)",
    "type": "effect"
}
