{
    "_id": "yrbz0rZzp8aZEqbv",
    "data": {
        "description": {
            "value": "<p>Granted by @Compendium[pf2e.equipment-srd.Serene Mutagen (Moderate)]{Serene Mutagen (Moderate)}</p>\n<p>Implemented effects:</p>\n<ul>\n<li>+2 item bonus to Will saves</li>\n<li>+3 item bonus to Will saves against mental effects</li>\n<li>+2 item bonus to Perception checks</li>\n<li>+2 item bonus to Medicine, Nature, Religion and Survival checks</li>\n<li>-1 penalty to attack rolls</li>\n</ul>\n<p>Unimplemented effects:</p>\n<ul>\n<li>-1 penalty to save DCs of offensive spells</li>\n<li>-1 penalty per damage die to all weapon, unarmed attack and spell damage rolls</li>\n</ul>"
        },
        "duration": {
            "expiry": "turn-start",
            "sustained": false,
            "unit": "minutes",
            "value": 10
        },
        "level": {
            "value": 3
        },
        "rules": [
            {
                "key": "FlatModifier",
                "label": "Serene Mutagen (Moderate)",
                "selector": "will",
                "type": "item",
                "value": 2
            },
            {
                "key": "FlatModifier",
                "label": "Serene Mutagen (Moderate)",
                "selector": "perception",
                "type": "item",
                "value": 2
            },
            {
                "key": "FlatModifier",
                "label": "Serene Mutagen (Moderate)",
                "selector": "medicine",
                "type": "item",
                "value": 2
            },
            {
                "key": "FlatModifier",
                "label": "Serene Mutagen (Moderate)",
                "selector": "nature",
                "type": "item",
                "value": 2
            },
            {
                "key": "FlatModifier",
                "label": "Serene Mutagen (Moderate)",
                "selector": "religion",
                "type": "item",
                "value": 2
            },
            {
                "key": "FlatModifier",
                "label": "Serene Mutagen (Moderate)",
                "selector": "survival",
                "type": "item",
                "value": 2
            },
            {
                "key": "FlatModifier",
                "label": "Serene Mutagen (Moderate)",
                "selector": "attack",
                "type": "untyped",
                "value": -1
            },
            {
                "key": "FlatModifier",
                "label": "Serene Mutagen, Moderate(vs. mental)",
                "predicate": {
                    "all": [
                        "mental"
                    ]
                },
                "selector": "will",
                "type": "item",
                "value": 3
            }
        ],
        "source": {
            "value": ""
        },
        "start": {
            "initiative": null,
            "value": 0
        },
        "target": null,
        "tokenIcon": {
            "show": true
        },
        "traits": {
            "custom": "",
            "rarity": {
                "value": "common"
            },
            "value": []
        }
    },
    "effects": [],
    "flags": {},
    "img": "systems/pf2e/icons/equipment/alchemical-items/alchemical-elixirs/serene-mutagen.webp",
    "name": "Effect: Serene Mutagen (Moderate)",
    "type": "effect"
}
