{
    "_id": "Zi1UARhode3FSFLr",
    "content": "<h1>General Susumu (The Black Daimyo) [LE]</h1><p><strong></strong><strong>General Susumu,</strong> also known as the Black Daimyo, is the Tian Xia patron deity of samurai who are interested more in glory and battle than honor and heroism. He is the brother of Shizuru, and the two seldom see eye to eye. His unholy symbol is a black winged horse, and he is worshiped primarily in Chu Ye, Hongal, Kaoling, Minkai, Shokuro, and Xa Hoi.</p><p></span><strong>Edicts</strong> Seek glory in battle, loudly proclaim your victories, protect your possessions and strongholds</p><p><strong>Anathema</strong> Cower from fights, refuse a challenge from an equal, mistreat your weapons, abuse your mount</p><p><strong>Follower Alignments</strong> LN, LE</span></p><p></span></p><h2>Devotee Benefits</h2><div><div><strong>Divine Ability</strong> Strength or Dexterity</div><div><strong>Divine Font</strong> harm</div><div><strong>Divine Skill</strong> Athletics</div><div><strong>Favored Weapon</strong> longbow</div><div><strong>Domains</strong> confidence, destruction, might, zeal</div><div><strong>Cleric Spells</strong> 1st: true strike, 2nd: phantom steed, 3rd: wall of wind</div></div>",
    "flags": {},
    "name": "General Susumu",
    "permission": {
        "default": 0
    }
}
