{
    "_id": "UEqntGzFrFA7ncUO",
    "data": {
        "actionCategory": {
            "value": "offensive"
        },
        "actionType": {
            "value": "action"
        },
        "actions": {
            "value": 2
        },
        "description": {
            "value": "<p><strong>Requirements</strong> You have a creature @Compendium[pf2e.conditionitems.Grabbed]{Grabbed} or @Compendium[pf2e.conditionitems.Restrained]{Restrained}.</p>\n<hr />\n<p>Heaving both yourself and your opponent into the air, you bring them crashing to the ground. Make an unarmed melee Strike against the creature you have grabbed or restrained. This Strike deals [[/r {1d6}[additional]]]{1d6 additional damage} per weapon damage die, and it has the following additional effects on a success, failure, and critical failure.</p>\n<p><strong>Success</strong> The target lands @Compendium[pf2e.conditionitems.Prone]{Prone}.</p>\n<p><strong>Failure</strong> You lose your grip on the target, and it is no longer grabbed or restrained by you.</p>\n<p><strong>Critical Failure</strong> You lose both your grip on the target and your balance. You fall prone, and the target is no longer grabbed or restrained by you.</p>"
        },
        "featType": {
            "value": "archetype"
        },
        "level": {
            "value": 10
        },
        "location": "",
        "prerequisites": {
            "value": [
                {
                    "value": "Wrestler Dedication"
                }
            ]
        },
        "rules": [],
        "source": {
            "value": ""
        },
        "traits": {
            "custom": "",
            "rarity": {
                "value": "common"
            },
            "value": [
                "archetype",
                "attack"
            ]
        }
    },
    "effects": [],
    "flags": {},
    "img": "systems/pf2e/icons/default-icons/feats.webp",
    "name": "Aerial Pilerdriver",
    "type": "feat"
}
