{
    "_id": "egmb8p3ZIYtx5aQN",
    "data": {
        "actionCategory": {
            "value": ""
        },
        "actionType": {
            "value": "action"
        },
        "actions": {
            "value": 2
        },
        "description": {
            "value": "<p>You slow down, focus, and take a careful shot. Make a ranged @Compendium[pf2e.actionspf2e.Strike]{Strike} with a weapon in the bow weapon group. You gain a +2 circumstance bonus to the attack roll and ignore the target's @Compendium[pf2e.conditionitems.Concealed]{Concealed} condition. If the target is @Compendium[pf2e.conditionitems.Hidden]{Hidden}, reduce the flat check from being hidden from 11 to 5.</p>"
        },
        "featType": {
            "value": "archetype"
        },
        "level": {
            "value": 8
        },
        "prerequisites": {
            "value": [
                {
                    "value": "Archer Dedication"
                }
            ]
        },
        "rules": [],
        "source": {
            "value": "Pathfinder Advanced Player's Guide"
        },
        "traits": {
            "custom": "",
            "rarity": {
                "value": "common"
            },
            "value": [
                "archetype",
                "concentrate"
            ]
        }
    },
    "effects": [],
    "flags": {},
    "img": "systems/pf2e/icons/features/feats/feats.webp",
    "name": "Archer's Aim",
    "type": "feat"
}
