{
    "_id": "uF0ATN2Zw1Q67ew2",
    "data": {
        "actionCategory": {
            "value": ""
        },
        "actionType": {
            "value": "passive"
        },
        "actions": {
            "value": null
        },
        "description": {
            "value": "<p>You are subtle in your efforts to learn the things you need to know.</p>\n<p>When @Compendium[pf2e.actionspf2e.Gather Information]{Gather Information}, you can hide the true subject of your inquiry among other topics of little interest to you without increasing the difficulty of the check or taking more time to Gather Information.</p>\n<p>Anyone trying to Gather Information to determine if someone else was asking around about the topic in question must exceed your Deception DC or the normal DC to Gather Information about your inquiries, whichever is higher, or else they don't learn of your efforts.</p>"
        },
        "featType": {
            "value": "skill"
        },
        "level": {
            "value": 2
        },
        "prerequisites": {
            "value": [
                {
                    "value": "expert in Deception or Diplomacy"
                }
            ]
        },
        "rules": [],
        "source": {
            "value": "Pathfinder Advanced Player's Guide"
        },
        "traits": {
            "custom": "",
            "rarity": {
                "value": "common"
            },
            "value": [
                "general",
                "skill"
            ]
        }
    },
    "effects": [],
    "flags": {},
    "img": "systems/pf2e/icons/features/feats/feats.webp",
    "name": "Discreet Inquiry",
    "type": "feat"
}
