{
    "_id": "H7Ocx80td7Sx7Cqn",
    "data": {
        "actionCategory": {
            "value": ""
        },
        "actionType": {
            "value": "action"
        },
        "actions": {
            "value": 1
        },
        "description": {
            "value": "<p>You focus your divine power to extend your influence. Select one aura you have from a champion feat or feature, such as @Compendium[pf2e.feats-srd.Aura of Courage]{Aura of Courage} or @Compendium[pf2e.feats-srd.Aura of Life]{Aura of Life}. The radius of the aura is doubled until the start of your next turn.</p>"
        },
        "featType": {
            "value": "class"
        },
        "level": {
            "value": 16
        },
        "prerequisites": {
            "value": [
                {
                    "value": "You have at least one aura from a champion feat or feature."
                }
            ]
        },
        "rules": [],
        "source": {
            "value": "Pathfinder Advanced Player's Guide"
        },
        "traits": {
            "custom": "",
            "rarity": {
                "value": "common"
            },
            "value": [
                "champion",
                "concentrate"
            ]
        }
    },
    "effects": [],
    "flags": {},
    "img": "systems/pf2e/icons/features/feats/feats.webp",
    "name": "Expand Aura",
    "type": "feat"
}
