{
    "_id": "Y3IUIsopvN13vEvZ",
    "data": {
        "actionCategory": {
            "value": ""
        },
        "actionType": {
            "value": "passive"
        },
        "actions": {
            "value": null
        },
        "description": {
            "value": "<p>You are brutally efficient with the weapons of your orc ancestors. Whenever you critically hit using a falchion, a greataxe, or an orc weapon, you apply the weapon's critical specialization effect.</p>"
        },
        "featType": {
            "value": "ancestry"
        },
        "level": {
            "value": 5
        },
        "location": "",
        "prerequisites": {
            "value": [
                {
                    "value": "Orc Weapon Familiarity"
                }
            ]
        },
        "rules": [
            {
                "key": "Note",
                "outcome": [
                    "criticalSuccess"
                ],
                "selector": "falchion-damage",
                "text": "<p class='compact-text'><strong>Critical Specialization</strong> The target is made off-balance by your attack, becoming @Compendium[pf2e.conditionitems.Flat-Footed]{Flat-Footed} until the start of your next turn.</p>"
            },
            {
                "key": "Note",
                "outcome": [
                    "criticalSuccess"
                ],
                "selector": "greataxe-damage",
                "text": "<p class='compact-text'><strong>Critical Specialization</strong> Choose one creature adjacent to the initial target and within reach. If its AC is lower than your attack roll result for the critical hit, you deal damage to that creature equal to the result of the weapon damage die you rolled (including extra dice for its potency rune, if any). This amount isn't doubled, and no bonuses or other additional dice apply to this damage.</p>"
            },
            {
                "key": "Note",
                "outcome": [
                    "criticalSuccess"
                ],
                "predicate": {
                    "any": [
                        "orc"
                    ]
                },
                "selector": "axe-weapon-group-damage",
                "text": "<p class='compact-text'><strong>Critical Specialization</strong> Choose one creature adjacent to the initial target and within reach. If its AC is lower than your attack roll result for the critical hit, you deal damage to that creature equal to the result of the weapon damage die you rolled (including extra dice for its potency rune, if any). This amount isn't doubled, and no bonuses or other additional dice apply to this damage.</p>"
            },
            {
                "key": "Note",
                "outcome": [
                    "criticalSuccess"
                ],
                "predicate": {
                    "any": [
                        "orc"
                    ]
                },
                "selector": "bomb-weapon-group-damage",
                "text": "<p class='compact-text'><strong>Critical Specialization</strong> Increase the radius of the bomb's splash damage (if any) to 10 feet.</p>"
            },
            {
                "key": "Note",
                "outcome": [
                    "criticalSuccess"
                ],
                "predicate": {
                    "any": [
                        "orc"
                    ]
                },
                "selector": "bow-weapon-group-damage",
                "text": "<p class='compact-text'><strong>Critical Specialization</strong> If the target of the critical hit is adjacent to a surface, it gets stuck to that surface by the missile. The target is @Compendium[pf2e.conditionitems.Immobilized]{Immobilized} and must spend an Interact action to attempt a DC 10 Athletics check to pull the missile free; it can't move from its space until it succeeds. The creature doesn't become stuck if it is incorporeal, is liquid (like a water elemental or some oozes), or could otherwise escape without effort.</p>"
            },
            {
                "key": "Note",
                "outcome": [
                    "criticalSuccess"
                ],
                "predicate": {
                    "any": [
                        "orc"
                    ]
                },
                "selector": "brawling-weapon-group-damage",
                "text": "<p class='compact-text'><strong>Critical Specialization</strong> The target must succeed at a Fortitude save against your class DC or be @Compendium[pf2e.conditionitems.Slowed]{Slowed 1} until the end of your next turn.</p>"
            },
            {
                "key": "Note",
                "outcome": [
                    "criticalSuccess"
                ],
                "predicate": {
                    "any": [
                        "orc"
                    ]
                },
                "selector": "club-weapon-group-damage",
                "text": "<p class='compact-text'><strong>Critical Specialization</strong> You knock the target away from you up to 10 feet (you choose the distance). This is forced movement.</p>"
            },
            {
                "key": "Note",
                "outcome": [
                    "criticalSuccess"
                ],
                "predicate": {
                    "any": [
                        "orc"
                    ]
                },
                "selector": "dart-weapon-group-damage",
                "text": "<p class='compact-text'><strong>Critical Specialization</strong> The target takes [[/r {1d6}[persistent,bleed] # Critical Specialization]] @Compendium[pf2e.conditionitems.Persistent Damage]{Persistent Bleed Damage}. You gain an item bonus to this bleed damage equal to the weapon's item bonus to attack rolls.</p>"
            },
            {
                "key": "Note",
                "outcome": [
                    "criticalSuccess"
                ],
                "predicate": {
                    "any": [
                        "orc"
                    ]
                },
                "selector": "flail-weapon-group-damage",
                "text": "<p class='compact-text'><strong>Critical Specialization</strong> The target is knocked @Compendium[pf2e.conditionitems.Prone]{Prone}.</p>"
            },
            {
                "key": "Note",
                "outcome": [
                    "criticalSuccess"
                ],
                "predicate": {
                    "any": [
                        "orc"
                    ]
                },
                "selector": "hammer-weapon-group-damage",
                "text": "<p class='compact-text'><strong>Critical Specialization</strong> The target is knocked @Compendium[pf2e.conditionitems.Prone]{Prone}.</p>"
            },
            {
                "key": "Note",
                "outcome": [
                    "criticalSuccess"
                ],
                "predicate": {
                    "any": [
                        "orc"
                    ]
                },
                "selector": "knife-weapon-group-damage",
                "text": "<p class='compact-text'><strong>Critical Specialization</strong>The target takes [[/r {1d6}[persistent,bleed] # Critical Specialization]] @Compendium[pf2e.conditionitems.Persistent Damage]{Persistent Bleed Damage}. You gain an item bonus to this bleed damage equal to the weapon's item bonus to attack rolls.</p>"
            },
            {
                "key": "Note",
                "outcome": [
                    "criticalSuccess"
                ],
                "predicate": {
                    "any": [
                        "orc"
                    ]
                },
                "selector": "pick-weapon-group-damage",
                "text": "<p class='compact-text'><strong>Critical Specialization</strong> The weapon viciously pierces the target, who takes 2 additional damage per weapon damage die.</p>"
            },
            {
                "key": "Note",
                "outcome": [
                    "criticalSuccess"
                ],
                "predicate": {
                    "any": [
                        "orc"
                    ]
                },
                "selector": "polearm-weapon-group-damage",
                "text": "<p class='compact-text'><strong>Critical Specialization</strong> The target is moved 5 feet in a direction of your choice. This is forced movement.</p>"
            },
            {
                "key": "Note",
                "outcome": [
                    "criticalSuccess"
                ],
                "predicate": {
                    "any": [
                        "orc"
                    ]
                },
                "selector": "shield-weapon-group-damage",
                "text": "<p class='compact-text'><strong>Critical Specialization</strong> You knock the target back from you 5 feet. This is forced movement.</p>"
            },
            {
                "key": "Note",
                "outcome": [
                    "criticalSuccess"
                ],
                "predicate": {
                    "any": [
                        "orc"
                    ]
                },
                "selector": "sling-weapon-group-damage",
                "text": "<p class='compact-text'><strong>Critical Specialization</strong> The target must succeed at a Fortitude save against your class DC or be @Compendium[pf2e.conditionitems.Stunned]{Stunned 1}.</p>"
            },
            {
                "key": "Note",
                "outcome": [
                    "criticalSuccess"
                ],
                "predicate": {
                    "any": [
                        "orc"
                    ]
                },
                "selector": "spear-weapon-group-damage",
                "text": "<p class='compact-text'><strong>Critical Specialization</strong> The weapon pierces the target, weakening its attacks. The target is @Compendium[pf2e.conditionitems.Clumsy]{Clumsy 1} until the start of your next turn.</p>"
            },
            {
                "key": "Note",
                "outcome": [
                    "criticalSuccess"
                ],
                "predicate": {
                    "any": [
                        "orc"
                    ]
                },
                "selector": "sword-weapon-group-damage",
                "text": "<p class='compact-text'><strong>Critical Specialization</strong> The target is made off-balance by your attack, becoming @Compendium[pf2e.conditionitems.Flat-Footed]{Flat-Footed} until the start of your next turn.</p>"
            }
        ],
        "source": {
            "value": "Pathfinder Core Rulebook"
        },
        "traits": {
            "custom": "",
            "rarity": {
                "value": "common"
            },
            "value": [
                "orc"
            ]
        }
    },
    "effects": [],
    "flags": {},
    "img": "systems/pf2e/icons/features/feats/feats.webp",
    "name": "Orc Weapon Carnage",
    "type": "feat"
}
