{
    "_id": "A9HQ2bMAge2aGgWx",
    "data": {
        "actionCategory": {
            "value": ""
        },
        "actionType": {
            "value": "passive"
        },
        "actions": {
            "value": null
        },
        "description": {
            "value": "<p>You grew up riding your clan's shaggy ponies and riding dogs. You become trained in Nature. If you would automatically become trained in Nature (from your background or class, for example), you instead become trained in a skill of your choice. You also get a +1 circumstance bonus to @Compendium[pf2e.actionspf2e.Command an Animal]{Command an Animal} if the target is a traditional halfling mount, such as a pony or riding dog.</p>"
        },
        "featType": {
            "value": "ancestry"
        },
        "level": {
            "value": 1
        },
        "prerequisites": {
            "value": []
        },
        "rules": [],
        "source": {
            "value": "Pathfinder Advanced Player's Guide"
        },
        "traits": {
            "custom": "",
            "rarity": {
                "value": "common"
            },
            "value": [
                "halfling"
            ]
        }
    },
    "effects": [],
    "flags": {},
    "img": "systems/pf2e/icons/features/feats/feats.webp",
    "name": "Prairie Rider",
    "type": "feat"
}
