{
    "_id": "LDIZtE7saDLSBduG",
    "data": {
        "actionCategory": {
            "value": ""
        },
        "actionType": {
            "value": "reaction"
        },
        "actions": {
            "value": null
        },
        "description": {
            "value": "<p><strong>Trigger</strong> You would be hit by an attack or targeted by an effect, or you are within an effect's area.</p>\n<p><strong>Requirements</strong> You have @Compendium[pf2e.feats-srd.Perfect Distraction]{Perfect Distraction} ready to use.</p>\n<hr />\n<p>You reactively switch with your decoy to foil your foe. You use Perfection Distraction, even if you were observed, as long as you end the movement of your Sneak while concealed or in a location with cover or greater cover.</p>\n<p>Your decoy is targeted by the attack or effect instead of you. In the case of an area effect, if your Sneak doesn't move you out of the area, both you and the decoy are targeted by the effect.</p>"
        },
        "featType": {
            "value": "class"
        },
        "level": {
            "value": 20
        },
        "location": "",
        "prerequisites": {
            "value": [
                {
                    "value": "legendary in Deception"
                },
                {
                    "value": "Perfect Distraction"
                }
            ]
        },
        "rules": [],
        "source": {
            "value": "Pathfinder Core Rulebook"
        },
        "traits": {
            "custom": "",
            "rarity": {
                "value": "common"
            },
            "value": [
                "manipulate",
                "concentrate",
                "rogue"
            ]
        }
    },
    "effects": [],
    "flags": {},
    "img": "systems/pf2e/icons/features/feats/feats.webp",
    "name": "Reactive Distraction",
    "type": "feat"
}
