{
    "_id": "y0vdu6DGhKKElmE6",
    "data": {
        "actionCategory": {
            "value": ""
        },
        "actionType": {
            "value": "passive"
        },
        "actions": {
            "value": null
        },
        "description": {
            "value": "<p>You cast spells like a witch. Choose a patron; you gain a familiar with two common cantrips of your choice from your chosen patron's tradition, but aside from the tradition, you don't gain any other effects the patron would usually grant. Your familiar has one less familiar ability than normal.</p>\n<p>You gain the @Compendium[pf2e.actionspf2e.Cast a Spell]{Cast a Spell} activity. You can prepare one cantrip each day from your familiar. You're trained in spell attack rolls and spell DCs from your patron's tradition. Your key spellcasting ability for witch archetype spells is Intelligence, and they are witch spells of your patron's tradition.</p>\n<p>You become trained in the skill associated with the patron's tradition; if you were already trained in it, you instead become trained in a skill of your choice.</p>\n<p><strong>Special</strong> You can't select another dedication feat until you have gained two other feats from the witch archetype.</p>"
        },
        "featType": {
            "value": "archetype"
        },
        "level": {
            "value": 2
        },
        "location": "",
        "prerequisites": {
            "value": [
                {
                    "value": "Intelligence 14"
                }
            ]
        },
        "rules": [
            {
                "key": "ActiveEffectLike",
                "mode": "upgrade",
                "path": "data.attributes.familiarAbilities.value",
                "priority": 9,
                "value": 1
            },
            {
                "key": "ActiveEffectLike",
                "mode": "upgrade",
                "path": "data.proficiencies.traditions.{actor|data.proficiencies.aliases.witch}.rank",
                "value": 1
            }
        ],
        "source": {
            "value": "Pathfinder Advanced Player's Guide"
        },
        "traits": {
            "custom": "",
            "rarity": {
                "value": "common"
            },
            "value": [
                "archetype",
                "dedication",
                "multiclass"
            ]
        }
    },
    "effects": [],
    "flags": {},
    "img": "systems/pf2e/icons/features/feats/feats.webp",
    "name": "Witch Dedication",
    "type": "feat"
}
