{
    "_id": "ZPlvqkjEv9a7J76T",
    "data": {
        "actionCategory": {
            "value": ""
        },
        "actionType": {
            "value": "passive"
        },
        "actions": {
            "value": null
        },
        "description": {
            "value": "<p><strong>Major Boon</strong>: An embodiment of freedom, you break fetters with ease. At the end of each of your turns, you can end one effect that is currently making you immobilized (including effects that make you immobilized by grabbing or restraining you) as a free action.</p>"
        },
        "featType": {
            "value": "deityboon"
        },
        "level": {
            "value": 0
        },
        "prerequisites": {
            "value": []
        },
        "rules": [],
        "source": {
            "value": ""
        },
        "traits": {
            "custom": "",
            "rarity": {
                "value": "common"
            },
            "selected": {},
            "value": []
        }
    },
    "effects": [],
    "flags": {},
    "img": "systems/pf2e/icons/deity/Cayden%20Cailean.webp",
    "name": "Cayden Cailean - Major Boon",
    "type": "feat"
}
