{
    "_id": "ScF0ECWnfXMHYLDL",
    "data": {
        "description": {
            "value": "<p>You infuse yourself with the corrupting death and pure malevolence of Abaddon, transforming into a Large daemon battle form. You must have enough space to expand into or the spell is lost. When you cast this spell you choose either ceustodaemon, leukodaemon, meladaemon, or piscodaemon. The battle form is Medium if you choose ceustodaemon. While in this form, you gain the daemon and fiend traits. You have hands in this battle form and can use manipulate actions. You can Dismiss the spell.</p>\n<p>You gain the following statistics and abilities regardless of the form that you choose:</p>\n<ul>\n<li>AC = 21 + your level. Ignore your armor check's penalty and Speed reduction.</li>\n<li>15 temporary Hit Points and weakness 5 to good.</li>\n<li>A +2 status bonus to all saving throws against death effects.</li>\n<li>Resistance 10 to poison.</li>\n<li>Darkvision.</li>\n<li>One or more attacks specific to the battle form you use. You're trained with them. Your attack modifier is +21, and you use the listed damage. These attacks are Strength based (for the purpose of the enfeebled condition, for example). If your unarmed attack modifier is higher, you can use it instead.</li>\n<li>Athletics modifier of +23, unless your own modifier is higher.</li>\n</ul>\n<p>You also gain specific abilities based on the type of Daemon you choose:</p>\n<ul>\n<li><strong>Leukodaemon</strong> Speed 25 feet, fly 40 feet; +2 status bonus to saves against diseases;\n<ul>\n<li><strong>Melee</strong> <span class=\"pf2-icon\">1</span> jaws (reach 10 feet), <strong>Damage</strong> 2d10+10 piercing plus 1d6 evil;</li>\n<li><strong>Melee</strong> <span class=\"pf2-icon\">1</span> claw (agile, reach 10 feet), <strong>Damage</strong> 2d6 slashing plus 1d6 evil;</li>\n<li><strong>Ranged</strong> <span class=\"pf2-icon\">1</span> composite longbow (deadly d10, range increment 100 feet, volley), <strong>Damage</strong> 2d8 piercing plus 1d6 evil.</li>\n</ul>\n</li>\n</ul>"
        },
        "duration": {
            "expiry": "turn-start",
            "sustained": false,
            "unit": "minutes",
            "value": 1
        },
        "level": {
            "value": 6
        },
        "rules": [
            {
                "key": "FlatModifier",
                "predicate": {
                    "any": [
                        "battle-form",
                        "death-effects",
                        "disease"
                    ]
                },
                "selector": "saving-throw",
                "type": "status",
                "value": 2
            },
            {
                "damageType": "evil",
                "diceNumber": 1,
                "dieSize": "d6",
                "key": "DamageDice",
                "predicate": {
                    "all": [
                        "battle-form"
                    ]
                },
                "selector": "damage"
            },
            {
                "hasHands": true,
                "key": "BattleForm",
                "overrides": {
                    "armorClass": {
                        "modifier": "21 + @details.level.value"
                    },
                    "hasHands": true,
                    "resistances": [
                        {
                            "type": "poison",
                            "value": 10
                        }
                    ],
                    "senses": {
                        "darkvision": {}
                    },
                    "size": "lg",
                    "skills": {
                        "ath": {
                            "modifier": 23
                        }
                    },
                    "speeds": {
                        "fly": 40,
                        "land": 25
                    },
                    "strikes": {
                        "claw": {
                            "ability": "str",
                            "baseType": "claw",
                            "category": "unarmed",
                            "damage": {
                                "damageType": "slashing",
                                "dice": 2,
                                "die": "d6"
                            },
                            "group": "brawling",
                            "label": "PF2E.Weapon.Base.claw",
                            "modifier": 21,
                            "traits": [
                                "reach-10",
                                "unarmed",
                                "agile"
                            ]
                        },
                        "composite-longbow": {
                            "ability": "str",
                            "baseType": "composite-longbow",
                            "category": "martial",
                            "damage": {
                                "damageType": "piercing",
                                "dice": 2,
                                "die": "d8"
                            },
                            "group": "bow",
                            "label": "PF2E.Weapon.Base.composite-longbow",
                            "modifier": 21,
                            "traits": [
                                "range-increment-100",
                                "deadly-d10",
                                "volley-30"
                            ]
                        },
                        "jaws": {
                            "ability": "str",
                            "baseType": "jaws",
                            "category": "unarmed",
                            "damage": {
                                "damageType": "piercing",
                                "dice": 2,
                                "die": "d10",
                                "modifier": 10
                            },
                            "group": "brawling",
                            "label": "PF2E.Weapon.Base.jaws",
                            "modifier": 21,
                            "traits": [
                                "unarmed",
                                "reach-10"
                            ]
                        }
                    },
                    "tempHP": 15,
                    "weaknesses": [
                        {
                            "type": "good",
                            "value": 5
                        }
                    ]
                }
            }
        ],
        "source": {
            "value": "Pathfinder Secrets of Magic"
        },
        "start": {
            "initiative": null,
            "value": 0
        },
        "target": null,
        "tokenIcon": {
            "show": true
        },
        "traits": {
            "custom": "",
            "rarity": {
                "value": "common"
            },
            "value": []
        }
    },
    "effects": [],
    "flags": {},
    "img": "systems/pf2e/icons/spells/daemon-form.webp",
    "name": "Spell Effect: Daemon Form (Leukodaemon)",
    "type": "effect"
}
