{
    "_id": "0W87OkYi3qCwNGSj",
    "data": {
        "description": {
            "value": "<p>You infuse yourself with the corrupting death and pure malevolence of Abaddon, transforming into a Large daemon battle form. You must have enough space to expand into or the spell is lost. When you cast this spell you choose either ceustodaemon, leukodaemon, meladaemon, or piscodaemon. The battle form is Medium if you choose ceustodaemon. While in this form, you gain the daemon and fiend traits. You have hands in this battle form and can use manipulate actions. You can Dismiss the spell.</p>\n<p>You gain the following statistics and abilities regardless of the form that you choose:</p>\n<ul>\n<li>AC = 21 + your level. Ignore your armor check's penalty and Speed reduction.</li>\n<li>15 temporary Hit Points and weakness 5 to good.</li>\n<li>A +2 status bonus to all saving throws against death effects.</li>\n<li>Resistance 10 to poison.</li>\n<li>Darkvision.</li>\n<li>One or more attacks specific to the battle form you use. You're trained with them. Your attack modifier is +21, and you use the listed damage. These attacks are Strength based (for the purpose of the enfeebled condition, for example). If your unarmed attack modifier is higher, you can use it instead.</li>\n<li>Athletics modifier of +23, unless your own modifier is higher.</li>\n</ul>\n<p>You also gain specific abilities based on the type of Daemon you choose:</p>\n<ul>\n<li><strong>Piscodaemon</strong> Speed 25 feet, swim 40 feet\n<ul>\n<li><strong>Melee</strong> <span class=\"pf2-icon\">1</span> claw, <strong>Damage</strong> 2d10+10 piercing plus 1d6 evil and 1d6 persistent bleed, and you can spend an action after a hit to Grab the target</li>\n<li><strong>Melee</strong> <span class=\"pf2-icon\">1</span> tentacle (agile), <strong>Damage</strong> 2d6 bludgeoning plus 1d6 evil and 1d6 poison.</li>\n</ul>\n</li>\n</ul>"
        },
        "duration": {
            "expiry": "turn-start",
            "sustained": false,
            "unit": "minutes",
            "value": 1
        },
        "level": {
            "value": 6
        },
        "rules": [
            {
                "key": "FlatModifier",
                "predicate": {
                    "all": [
                        "battle-form",
                        "death-effects"
                    ]
                },
                "selector": "saving-throw",
                "type": "status",
                "value": 2
            },
            {
                "hasHands": true,
                "key": "BattleForm",
                "overrides": {
                    "armorClass": {
                        "modifier": "21 + @details.level.value"
                    },
                    "resistances": [
                        {
                            "type": "poison",
                            "value": 10
                        }
                    ],
                    "senses": {
                        "darkvision": {}
                    },
                    "size": "lg",
                    "skills": {
                        "ath": {
                            "modifier": 23
                        }
                    },
                    "speeds": {
                        "land": 25,
                        "swim": 40
                    },
                    "strikes": {
                        "claw": {
                            "ability": "str",
                            "baseType": "claw",
                            "category": "unarmed",
                            "damage": {
                                "damageType": "piercing",
                                "dice": 2,
                                "die": "d10"
                            },
                            "group": "brawling",
                            "label": "PF2E.Weapon.Base.claw",
                            "modifier": 21,
                            "traits": [
                                "unarmed"
                            ]
                        },
                        "tentacle": {
                            "ability": "str",
                            "category": "brawling",
                            "damage": {
                                "damageType": "bludgeoning",
                                "dice": 2,
                                "die": "d6"
                            },
                            "group": "brawling",
                            "modifier": 21,
                            "traits": [
                                "unarmed",
                                "agile"
                            ]
                        }
                    },
                    "tempHP": 15,
                    "weaknesses": [
                        {
                            "type": "good",
                            "value": 5
                        }
                    ]
                }
            },
            {
                "damageType": "evil",
                "diceNumber": 1,
                "dieSize": "d6",
                "key": "DamageDice",
                "predicate": {
                    "all": [
                        "battle-form"
                    ]
                },
                "selector": "damage"
            },
            {
                "damageType": "poison",
                "diceNumber": 1,
                "dieSize": "d6",
                "key": "DamageDice",
                "predicate": {
                    "all": [
                        "battle-form"
                    ]
                },
                "selector": "tentacle-damage"
            },
            {
                "key": "Note",
                "predicate": {
                    "all": [
                        "battle-form"
                    ]
                },
                "selector": "claw-damage",
                "text": "<p class=\"compact-text\"><strong>Daemon Form (Piscodaemon)</strong>: [[/r 1d6 #persistent bleed]]{1d6} @Compendium[pf2e.conditionitems.Persistent Damage]{Persistent bleed Damage}, and you can spend an action after a hit to @Compendium[pf2e.bestiary-ability-glossary-srd.Grab]{Grab} the target</p>"
            }
        ],
        "source": {
            "value": "Pathfinder Secrets of Magic"
        },
        "start": {
            "initiative": null,
            "value": 0
        },
        "target": null,
        "tokenIcon": {
            "show": true
        },
        "traits": {
            "custom": "",
            "rarity": {
                "value": "common"
            },
            "value": []
        }
    },
    "effects": [],
    "flags": {},
    "img": "systems/pf2e/icons/spells/daemon-form.webp",
    "name": "Spell Effect: Daemon Form (Piscodaemon)",
    "type": "effect"
}
