{
    "_id": "BuPf7xtqfwCjNOQv",
    "data": {
        "abilities": {
            "cha": {
                "mod": 8
            },
            "con": {
                "mod": 0
            },
            "dex": {
                "mod": 3
            },
            "int": {
                "mod": 5
            },
            "str": {
                "mod": 6
            },
            "wis": {
                "mod": 2
            }
        },
        "attributes": {
            "ac": {
                "details": "",
                "value": 42
            },
            "allSaves": {
                "value": ""
            },
            "hp": {
                "details": "",
                "max": 350,
                "temp": 0,
                "value": 350
            },
            "initiative": {
                "ability": "perception"
            },
            "perception": {
                "value": 33
            },
            "shield": {
                "ac": 2,
                "brokenThreshold": "0",
                "hardness": 0,
                "max": "0",
                "value": 0
            },
            "speed": {
                "otherSpeeds": [],
                "value": "25 feet"
            }
        },
        "details": {
            "alignment": {
                "value": "NE"
            },
            "blurb": "",
            "creatureType": "",
            "level": {
                "value": 18
            },
            "privateNotes": "",
            "publicNotes": "",
            "source": {
                "value": "Pathfinder #161: Belly of the Black Whale"
            }
        },
        "resources": {},
        "saves": {
            "fortitude": {
                "saveDetail": "",
                "value": 26
            },
            "reflex": {
                "saveDetail": "",
                "value": 29
            },
            "will": {
                "saveDetail": "",
                "value": 28
            }
        },
        "traits": {
            "ci": [],
            "di": {
                "custom": "",
                "value": []
            },
            "dr": [
                {
                    "exceptions": "",
                    "label": "Physical",
                    "type": "physical",
                    "value": "10"
                }
            ],
            "dv": [
                {
                    "exceptions": "",
                    "label": "Electricity",
                    "type": "electricity",
                    "value": "15"
                },
                {
                    "exceptions": "",
                    "label": "Orichalcum",
                    "type": "orichalcum",
                    "value": "15"
                }
            ],
            "languages": {
                "custom": "",
                "selected": [],
                "value": [
                    "abyssal",
                    "aquan",
                    "common",
                    "daemonic",
                    "infernal"
                ]
            },
            "rarity": {
                "value": "unique"
            },
            "senses": {
                "value": ""
            },
            "size": {
                "value": "med"
            },
            "traits": {
                "custom": "",
                "value": [
                    "aberration",
                    "humanoid"
                ]
            }
        }
    },
    "effects": [],
    "flags": {},
    "img": "systems/pf2e/icons/default-icons/npc.svg",
    "items": [
        {
            "_id": "hScPOOUe2XVGeyIa",
            "data": {
                "attack": {
                    "value": ""
                },
                "attackEffects": {
                    "value": []
                },
                "bonus": {
                    "value": 34
                },
                "damageRolls": {
                    "cpp9j0btcla0tys2gc59p": {
                        "damage": "3d12+14",
                        "damageType": "bludgeoning"
                    }
                },
                "description": {
                    "value": ""
                },
                "rules": [],
                "slug": null,
                "source": {
                    "value": ""
                },
                "traits": {
                    "custom": "Mechanical",
                    "rarity": {
                        "value": "common"
                    },
                    "value": [
                        "agile"
                    ]
                },
                "weaponType": {
                    "value": "melee"
                }
            },
            "effects": [],
            "flags": {},
            "img": "systems/pf2e/icons/default-icons/melee.svg",
            "name": "bronze fist",
            "sort": 100000,
            "type": "melee"
        },
        {
            "_id": "osA98Km4yrxpF38T",
            "data": {
                "attack": {
                    "value": ""
                },
                "attackEffects": {
                    "custom": "",
                    "value": []
                },
                "bonus": {
                    "value": 31
                },
                "damageRolls": {
                    "0": {
                        "damage": "3d8+14",
                        "damageType": "piercing"
                    }
                },
                "description": {
                    "value": ""
                },
                "rules": [],
                "slug": null,
                "source": {
                    "value": ""
                },
                "traits": {
                    "custom": "",
                    "rarity": {
                        "value": "common"
                    },
                    "value": [
                        "agile",
                        "magical",
                        "thrown-20"
                    ]
                },
                "weaponType": {
                    "value": "ranged"
                }
            },
            "effects": [],
            "flags": {},
            "img": "systems/pf2e/icons/default-icons/melee.svg",
            "name": "steel quill",
            "sort": 200000,
            "type": "melee"
        },
        {
            "_id": "pJcNWcLAWBXtvefA",
            "data": {
                "actionCategory": {
                    "value": "defensive"
                },
                "actionType": {
                    "value": "passive"
                },
                "actions": {
                    "value": null
                },
                "description": {
                    "value": "<p>Each time Reginald is reborn in his lair, his machines graft him with a new clockwork modification. He chooses one of his abilities with the clockwork trait. He gains access to this ability but can't use any of his other clockwork abilities. He can't choose the same ability twice in a row. He begins with Ink Blood active.</p>"
                },
                "requirements": {
                    "value": ""
                },
                "rules": [],
                "slug": null,
                "source": {
                    "value": ""
                },
                "traits": {
                    "custom": "",
                    "rarity": {
                        "value": "common"
                    },
                    "value": []
                },
                "trigger": {
                    "value": ""
                },
                "weapon": {
                    "value": ""
                }
            },
            "effects": [],
            "flags": {},
            "img": "systems/pf2e/icons/actions/Passive.webp",
            "name": "Clockwork Reconstruction",
            "sort": 300000,
            "type": "action"
        },
        {
            "_id": "3dd754R1VUxFyZiT",
            "data": {
                "actionCategory": {
                    "value": "defensive"
                },
                "actionType": {
                    "value": "passive"
                },
                "actions": {
                    "value": null
                },
                "description": {
                    "value": "<p>If a creature with less than 5 Secret Knowledge points reduces Reginald to 0 HP (or dealt the last damage to him before he dies from using Overdrive Engine), Reginald's body dissipates into a puddle of ink and releases a black wave of psychic energy. Each creature within 30 feet is bathed in a torrent of forbidden secrets and gains 1 Secret Knowledge point. Reginald's body reforms [[/br 1d6 #rounds]]{1d6 rounds} later in his sanctum at full health at a location of his choosing (typically the Pool of Secrets, area <strong>L11</strong>). This ability activates automatically with no action necessary on Vancaskerkin's behalf.</p>"
                },
                "requirements": {
                    "value": ""
                },
                "rules": [],
                "slug": null,
                "source": {
                    "value": ""
                },
                "traits": {
                    "custom": "",
                    "rarity": {
                        "value": "common"
                    },
                    "value": [
                        "necromancy",
                        "occult"
                    ]
                },
                "trigger": {
                    "value": ""
                },
                "weapon": {
                    "value": ""
                }
            },
            "effects": [],
            "flags": {},
            "img": "systems/pf2e/icons/actions/Passive.webp",
            "name": "Secret of Rebirth",
            "sort": 400000,
            "type": "action"
        },
        {
            "_id": "2zmTtiyeZNvKPOcI",
            "data": {
                "actionCategory": {
                    "value": "defensive"
                },
                "actionType": {
                    "value": "reaction"
                },
                "actions": {
                    "value": null
                },
                "description": {
                    "value": "<p><strong>Requirements</strong> Reginald's body is filled with toxic ink</p>\n<p data-visibility=\"gm\"><strong>Trigger</strong> An adjacent creature Strikes Reginald with a melee weapon or unarmed attack and deals damage</p>\n<hr />\n<p>The creature is exposed to Reginald's poison ink.</p>"
                },
                "requirements": {
                    "value": ""
                },
                "rules": [],
                "slug": null,
                "source": {
                    "value": ""
                },
                "traits": {
                    "custom": "Clockwork",
                    "rarity": {
                        "value": "common"
                    },
                    "value": [
                        "poison"
                    ]
                },
                "trigger": {
                    "value": ""
                },
                "weapon": {
                    "value": ""
                }
            },
            "effects": [],
            "flags": {},
            "img": "systems/pf2e/icons/actions/Reaction.webp",
            "name": "Ink Blood",
            "sort": 500000,
            "type": "action"
        },
        {
            "_id": "rlZ9VxWPwn9XfGgL",
            "data": {
                "actionCategory": {
                    "value": "offensive"
                },
                "actionType": {
                    "value": "action"
                },
                "actions": {
                    "value": 2
                },
                "description": {
                    "value": "<p>Reginald's lungs are equipped with ink canisters, allowing him to spew a 60-foot line of ink that deals [[/r {9d6}[poison]]]{9d6 poison damage} (<span data-pf2-check=\"reflex\" data-pf2-dc=\"39\" data-pf2-traits=\"clockwork,damaging-effects,evocation,magical,poison\" data-pf2-label=\"Breath Weapon DC\" data-pf2-show-dc=\"gm\">basic Reflex</span> save; on a failure, the creature is also subjected to Reginald's poison ink).</p>"
                },
                "requirements": {
                    "value": ""
                },
                "rules": [],
                "slug": null,
                "source": {
                    "value": ""
                },
                "traits": {
                    "custom": "",
                    "rarity": {
                        "value": "common"
                    },
                    "value": [
                        "clockwork",
                        "evocation",
                        "magical",
                        "poison"
                    ]
                },
                "trigger": {
                    "value": ""
                },
                "weapon": {
                    "value": ""
                }
            },
            "effects": [],
            "flags": {},
            "img": "systems/pf2e/icons/actions/TwoActions.webp",
            "name": "Breath Weapon",
            "sort": 600000,
            "type": "action"
        },
        {
            "_id": "zaQRIy856WuUiHBw",
            "data": {
                "actionCategory": {
                    "value": "offensive"
                },
                "actionType": {
                    "value": "passive"
                },
                "actions": {
                    "value": null
                },
                "description": {
                    "value": "<p>[free-action] (clockwork) Reginald is equipped with clockwork organs to power his body; <strong>Requirements</strong> Reginald has 175 Hit Points or fewer; <strong>Effect</strong> Reginald gains 200 temporary Hit Points, a +15-foot status bonus to Speed, and a +2 status bonus to melee attack rolls. His body begins to overheat, spewing steam that deals [[/r {9d6}[fire]]]{9d6 fire damage} at the beginning of his turn to all creatures within 30 feet (<span data-pf2-check=\"reflex\" data-pf2-dc=\"40\" data-pf2-traits=\"damaging-effect\" data-pf2-label=\"Overdrive Engine DC\" data-pf2-show-dc=\"gm\">basic Reflex</span> save). After 2 rounds, Reginald explodes, dealing [[/r {19d6}[fire]]]{19d6 fire damage} to all creatures within 60 feet (<span data-pf2-check=\"reflex\" data-pf2-dc=\"40\" data-pf2-traits=\"damaging-effect\" data-pf2-label=\"Overdrive Engine DC\" data-pf2-show-dc=\"gm\">basic Reflex</span> save). Reginald dies. For the purposes of his Secret of Rebirth ability, the last creature to damage Reginald counts as killing him.</p>"
                },
                "requirements": {
                    "value": ""
                },
                "rules": [],
                "slug": null,
                "source": {
                    "value": ""
                },
                "traits": {
                    "custom": "",
                    "rarity": {
                        "value": "common"
                    },
                    "value": []
                },
                "trigger": {
                    "value": ""
                },
                "weapon": {
                    "value": ""
                }
            },
            "effects": [],
            "flags": {},
            "img": "systems/pf2e/icons/actions/Passive.webp",
            "name": "Overdrive Engine",
            "sort": 700000,
            "type": "action"
        },
        {
            "_id": "V3S7DLZ4aWxgcg1R",
            "data": {
                "actionCategory": {
                    "value": "offensive"
                },
                "actionType": {
                    "value": "passive"
                },
                "actions": {
                    "value": null
                },
                "description": {
                    "value": "<p>Reginald is immune to the toxic ink that flows through his veins; <strong>Saving Throw</strong> <span data-pf2-check=\"fortitude\" data-pf2-dc=\"38\" data-pf2-traits=\"poison\" data-pf2-label=\"Poison Ink DC\" data-pf2-show-dc=\"gm\">Fortitude</span>; <strong>Maximum Duration</strong> 10 rounds; <strong>Stage 1</strong> 3d6 poison and sickened 1 (1 round); <strong>Stage 2</strong> 4d6 poison sickened 2 (1 round).</p>"
                },
                "requirements": {
                    "value": ""
                },
                "rules": [],
                "slug": null,
                "source": {
                    "value": ""
                },
                "traits": {
                    "custom": "",
                    "rarity": {
                        "value": "common"
                    },
                    "value": [
                        "poison"
                    ]
                },
                "trigger": {
                    "value": ""
                },
                "weapon": {
                    "value": ""
                }
            },
            "effects": [],
            "flags": {},
            "img": "systems/pf2e/icons/actions/Passive.webp",
            "name": "Poison Ink",
            "sort": 800000,
            "type": "action"
        },
        {
            "_id": "KOfo0zVfgBhhWGjT",
            "data": {
                "actionCategory": {
                    "value": "offensive"
                },
                "actionType": {
                    "value": "action"
                },
                "actions": {
                    "value": 2
                },
                "description": {
                    "value": "<p>Reginald is equipped with a cannon and hundreds of steel quills. He makes two steel quill attacks against every creature in a 60-foot cone, ignoring the multiple attack penalty until after all attacks are made. He can't use Quill Cannon again for [[/br 1d4 #rounds]]{1d4 rounds}.</p>"
                },
                "requirements": {
                    "value": ""
                },
                "rules": [],
                "slug": null,
                "source": {
                    "value": ""
                },
                "traits": {
                    "custom": "",
                    "rarity": {
                        "value": "common"
                    },
                    "value": [
                        "clockwork"
                    ]
                },
                "trigger": {
                    "value": ""
                },
                "weapon": {
                    "value": ""
                }
            },
            "effects": [],
            "flags": {},
            "img": "systems/pf2e/icons/actions/TwoActions.webp",
            "name": "Quill Cannon",
            "sort": 900000,
            "type": "action"
        },
        {
            "_id": "OF5xPm4it251t0zo",
            "data": {
                "actionCategory": {
                    "value": "offensive"
                },
                "actionType": {
                    "value": "action"
                },
                "actions": {
                    "value": 1
                },
                "description": {
                    "value": "<p>Reginald engages his defensive plating, which casts <i>spell turning</i> on him (counteract modifier +32).</p>"
                },
                "requirements": {
                    "value": ""
                },
                "rules": [],
                "slug": null,
                "source": {
                    "value": ""
                },
                "traits": {
                    "custom": "",
                    "rarity": {
                        "value": "common"
                    },
                    "value": [
                        "clockwork",
                        "occult"
                    ]
                },
                "trigger": {
                    "value": ""
                },
                "weapon": {
                    "value": ""
                }
            },
            "effects": [],
            "flags": {},
            "img": "systems/pf2e/icons/actions/OneAction.webp",
            "name": "Reflective Plating",
            "sort": 1000000,
            "type": "action"
        },
        {
            "_id": "5inXNyZGoLUMii53",
            "data": {
                "actionCategory": {
                    "value": "offensive"
                },
                "actionType": {
                    "value": "passive"
                },
                "actions": {
                    "value": null
                },
                "description": {
                    "value": "<p>With his body composed of ink and gears, Reginald can move through tight spaces as if he were a Tiny creature, treating them as difficult terrain.</p>"
                },
                "requirements": {
                    "value": ""
                },
                "rules": [],
                "slug": null,
                "source": {
                    "value": ""
                },
                "traits": {
                    "custom": "",
                    "rarity": {
                        "value": "common"
                    },
                    "value": []
                },
                "trigger": {
                    "value": ""
                },
                "weapon": {
                    "value": ""
                }
            },
            "effects": [],
            "flags": {},
            "img": "systems/pf2e/icons/actions/Passive.webp",
            "name": "Slither",
            "sort": 1100000,
            "type": "action"
        },
        {
            "_id": "rm9LdZwyao3hq2RK",
            "data": {
                "description": {
                    "value": ""
                },
                "item": {
                    "value": 0
                },
                "mod": {
                    "value": 31
                },
                "proficient": {
                    "value": 0
                },
                "rules": [],
                "slug": null,
                "source": {
                    "value": ""
                },
                "traits": {
                    "custom": "",
                    "rarity": {
                        "value": "common"
                    },
                    "value": []
                }
            },
            "effects": [],
            "flags": {},
            "img": "systems/pf2e/icons/default-icons/lore.svg",
            "name": "Absalom Lore",
            "sort": 1200000,
            "type": "lore"
        },
        {
            "_id": "SM6tobBEO0ujSpOa",
            "data": {
                "description": {
                    "value": ""
                },
                "item": {
                    "value": 0
                },
                "mod": {
                    "value": 32
                },
                "proficient": {
                    "value": 0
                },
                "rules": [],
                "slug": null,
                "source": {
                    "value": ""
                },
                "traits": {
                    "custom": "",
                    "rarity": {
                        "value": "common"
                    },
                    "value": []
                }
            },
            "effects": [],
            "flags": {},
            "img": "systems/pf2e/icons/default-icons/lore.svg",
            "name": "Acrobatics",
            "sort": 1300000,
            "type": "lore"
        },
        {
            "_id": "OSjVJ9NWxEN75ajH",
            "data": {
                "description": {
                    "value": ""
                },
                "item": {
                    "value": 0
                },
                "mod": {
                    "value": 34
                },
                "proficient": {
                    "value": 0
                },
                "rules": [],
                "slug": null,
                "source": {
                    "value": ""
                },
                "traits": {
                    "custom": "",
                    "rarity": {
                        "value": "common"
                    },
                    "value": []
                }
            },
            "effects": [],
            "flags": {},
            "img": "systems/pf2e/icons/default-icons/lore.svg",
            "name": "Deception",
            "sort": 1400000,
            "type": "lore"
        },
        {
            "_id": "hIb81IlpJSDDaAsm",
            "data": {
                "description": {
                    "value": ""
                },
                "item": {
                    "value": 0
                },
                "mod": {
                    "value": 34
                },
                "proficient": {
                    "value": 0
                },
                "rules": [],
                "slug": null,
                "source": {
                    "value": ""
                },
                "traits": {
                    "custom": "",
                    "rarity": {
                        "value": "common"
                    },
                    "value": []
                }
            },
            "effects": [],
            "flags": {},
            "img": "systems/pf2e/icons/default-icons/lore.svg",
            "name": "Diplomacy",
            "sort": 1500000,
            "type": "lore"
        },
        {
            "_id": "RZJPsQgzSjhqSzZx",
            "data": {
                "description": {
                    "value": ""
                },
                "item": {
                    "value": 0
                },
                "mod": {
                    "value": 31
                },
                "proficient": {
                    "value": 0
                },
                "rules": [],
                "slug": null,
                "source": {
                    "value": ""
                },
                "traits": {
                    "custom": "",
                    "rarity": {
                        "value": "common"
                    },
                    "value": []
                }
            },
            "effects": [],
            "flags": {},
            "img": "systems/pf2e/icons/default-icons/lore.svg",
            "name": "Engineering Lore",
            "sort": 1600000,
            "type": "lore"
        },
        {
            "_id": "KNQLIoFanYkvOq8V",
            "data": {
                "description": {
                    "value": ""
                },
                "item": {
                    "value": 0
                },
                "mod": {
                    "value": 31
                },
                "proficient": {
                    "value": 0
                },
                "rules": [],
                "slug": null,
                "source": {
                    "value": ""
                },
                "traits": {
                    "custom": "",
                    "rarity": {
                        "value": "common"
                    },
                    "value": []
                }
            },
            "effects": [],
            "flags": {},
            "img": "systems/pf2e/icons/default-icons/lore.svg",
            "name": "Occultism",
            "sort": 1700000,
            "type": "lore"
        },
        {
            "_id": "juBy7v41d5khL9FP",
            "data": {
                "description": {
                    "value": ""
                },
                "item": {
                    "value": 0
                },
                "mod": {
                    "value": 28
                },
                "proficient": {
                    "value": 0
                },
                "rules": [],
                "slug": null,
                "source": {
                    "value": ""
                },
                "traits": {
                    "custom": "",
                    "rarity": {
                        "value": "common"
                    },
                    "value": []
                }
            },
            "effects": [],
            "flags": {},
            "img": "systems/pf2e/icons/default-icons/lore.svg",
            "name": "Religion",
            "sort": 1800000,
            "type": "lore"
        },
        {
            "_id": "b8fdsjKG4OrZGVEs",
            "data": {
                "description": {
                    "value": ""
                },
                "item": {
                    "value": 0
                },
                "mod": {
                    "value": 29
                },
                "proficient": {
                    "value": 0
                },
                "rules": [],
                "slug": null,
                "source": {
                    "value": ""
                },
                "traits": {
                    "custom": "",
                    "rarity": {
                        "value": "common"
                    },
                    "value": []
                }
            },
            "effects": [],
            "flags": {},
            "img": "systems/pf2e/icons/default-icons/lore.svg",
            "name": "Thievery",
            "sort": 1900000,
            "type": "lore"
        }
    ],
    "name": "Reginald Vancaskerkin",
    "token": {
        "disposition": -1,
        "height": 1,
        "img": "systems/pf2e/icons/default-icons/npc.svg",
        "name": "Reginald Vancaskerkin",
        "width": 1
    },
    "type": "npc"
}
