{
    "_id": "wp09USMB3GIW1qbp",
    "data": {
        "ability": {
            "value": ""
        },
        "area": {
            "areaType": "",
            "value": null
        },
        "areasize": {
            "value": ""
        },
        "category": {
            "value": "spell"
        },
        "components": {
            "material": false,
            "somatic": true,
            "verbal": true
        },
        "cost": {
            "value": ""
        },
        "damage": {
            "value": {}
        },
        "description": {
            "value": "<p>You call upon primal energy to transform yourself into a Medium animal battle form. When you first cast this spell, choose ape, bear, bull, canine, cat, deer, frog, shark, or snake. You can decide the specific type of animal (such as lion or snow leopard for cat), but this has no effect on the form's Size or statistics. While in this form, you gain the animal trait. You can Dismiss the spell.</p>\n<p>You gain the following statistics and abilities regardless of which battle form you choose:</p>\n<ul>\n<li>AC = 16 + your level. Ignore your armor's check penalty and Speed reduction.</li>\n<li>5 temporary Hit Points.</li>\n<li>Low-light vision and imprecise scent 30 feet.</li>\n<li>One or more unarmed melee attacks specific to the battle form you choose, which are the only attacks you can use. You're trained with them. Your attack modifier is +9, and your damage bonus is +1. These attacks are Strength based (for the purpose of the @Compendium[pf2e.conditionitems.Enfeebled]{Enfeebled} condition, for example). If your unarmed attack bonus is higher, you can use it instead.</li>\n<li>Athletics modifier of +9, unless your own modifier is higher.</li>\n</ul>\n<p>You also gain specific abilities based on the type of animal you choose:</p>\n<ul>\n<li><strong>@Compendium[pf2e.spell-effects.Spell Effect: Animal Form (Ape)]{Ape}</strong>\n<ul>\n<li>Speed 25 feet, climb Speed 20 feet;</li>\n<li><strong>Melee</strong> <span class=\"pf2-icon\">a</span> fist, <strong>Damage</strong> 2d6 bludgeoning.</li>\n</ul>\n</li>\n<li><strong>@Compendium[pf2e.spell-effects.Spell Effect: Animal Form (Bear)]{Bear}</strong>\n<ul>\n<li>Speed 30 feet; </li><li><strong>Melee</strong> <span class=\"pf2-icon\">a</span> jaws, <strong>Damage</strong> 2d8 piercing;</li>\n<li><strong>Melee</strong> <span class=\"pf2-icon\">a</span> claw (agile), <strong>Damage</strong> 1d8 slashing.</li>\n</ul>\n</li>\n<li><strong>@Compendium[pf2e.spell-effects.Spell Effect: Animal Form (Bull)]{Bull}</strong>\n<ul>\n<li>Speed 30 feet;</li>\n<li><strong>Melee</strong> <span class=\"pf2-icon\">a</span> horn , <strong>Damage</strong> 2d8 piercing.</li>\n</ul>\n</li>\n<li><strong>@Compendium[pf2e.spell-effects.Spell Effect: Animal Form (Canine)]{Canine}</strong>\n<ul>\n<li>Speed 40 feet;</li>\n<li><strong>Melee</strong> <span class=\"pf2-icon\">a</span> jaws, <strong>Damage</strong> 2d8 piercing.</li>\n</ul>\n</li>\n<li><strong>@Compendium[pf2e.spell-effects.Spell Effect: Animal Form (Cat)]{Cat}</strong>\n<ul>\n<li>Speed 40 feet;</li>\n<li><strong>Melee</strong> <span class=\"pf2-icon\">a</span> jaws, <strong>Damage</strong> 2d6 piercing;</li>\n<li><strong>Melee</strong> <span class=\"pf2-icon\">a</span> claw (agile), <strong>Damage</strong> 1d10 slashing.</li>\n</ul>\n</li>\n<li><strong>@Compendium[pf2e.spell-effects.Spell Effect: Animal Form (Deer)]{Deer}</strong>\n<ul>\n<li>Speed 50 feet;</li>\n<li><strong>Melee</strong> <span class=\"pf2-icon\">a</span> antler , <strong>Damage</strong> 2d6 piercing.</li>\n</ul>\n</li>\n<li><strong>@Compendium[pf2e.spell-effects.Spell Effect: Animal Form (Frog)]{Frog}</strong>\n<ul>\n<li>Speed 25 feet, swim Speed 25 feet;</li>\n<li><strong>Melee</strong> <span class=\"pf2-icon\">a</span> jaws, <strong>Damage</strong> 2d6 bludgeoning;</li>\n<li><strong>Melee</strong> <span class=\"pf2-icon\">a</span> tongue (reach 15 feet), <strong>Damage</strong> 2d4 bludgeoning.</li>\n</ul>\n</li>\n<li><strong>@Compendium[pf2e.spell-effects.Spell Effect: Animal Form (Shark)]{Shark}</strong>\n<ul>\n<li>swim Speed 35 feet;</li>\n<li><strong>Melee</strong> <span class=\"pf2-icon\">a</span> jaws, <strong>Damage</strong> 2d8 piercing;</li>\n<li>breathe underwater but not in air.</li>\n</ul>\n</li>\n<li><strong>@Compendium[pf2e.spell-effects.Spell Effect: Animal Form (Snake)]{Snake}</strong>\n<ul>\n<li>Speed 20 feet, climb Speed 20 feet, swim Speed 20 feet;</li>\n<li><strong>Melee</strong> <span class=\"pf2-icon\">a</span> fangs, <strong>Damage</strong> 2d4 piercing plus 1d6 poison.</li>\n</ul>\n</li>\n</ul>\n<hr />\n<p><strong>Heightened (3rd)</strong> You instead gain 10 temporary HP, AC = 17 + your level, attack modifier +14, damage bonus +5, and Athletics +14.</p>\n<p><strong>Heightened (4th)</strong> Your battle form is Large and your attacks have 10-foot reach. You must have enough space to expand into or the spell is lost. You instead gain 15 temporary HP, AC = 18 + your level, attack modifier +16, damage bonus +9, and Athletics +16.</p>\n<p><strong>Heightened (5th)</strong> Your battle form is Huge and your attacks have 15-foot reach. You must have enough space to expand into or the spell is lost. You instead gain 20 temporary HP, AC = 18 + your level, attack modifier +18, damage bonus +7 and double the number of damage dice, and Athletics +20.</p>"
        },
        "duration": {
            "value": "1 minute"
        },
        "hasCounteractCheck": {
            "value": false
        },
        "level": {
            "value": 2
        },
        "location": {
            "value": 147
        },
        "materials": {
            "value": ""
        },
        "prepared": {
            "value": ""
        },
        "primarycheck": {
            "value": ""
        },
        "range": {
            "value": ""
        },
        "rules": [],
        "save": {
            "basic": "",
            "value": ""
        },
        "school": {
            "value": "transmutation"
        },
        "secondarycasters": {
            "value": ""
        },
        "secondarycheck": {
            "value": ""
        },
        "source": {
            "value": "Pathfinder Core Rulebook"
        },
        "spellType": {
            "value": "utility"
        },
        "sustained": {
            "value": false
        },
        "target": {
            "value": ""
        },
        "time": {
            "value": "2"
        },
        "traditions": {
            "value": [
                "primal"
            ]
        },
        "traits": {
            "custom": "",
            "rarity": {
                "value": "common"
            },
            "value": [
                "polymorph"
            ]
        }
    },
    "effects": [],
    "flags": {},
    "img": "systems/pf2e/icons/spells/animal-form.webp",
    "name": "Animal Form",
    "type": "spell"
}
