{
    "_id": "jFmWSIpJGGebim6y",
    "data": {
        "ability": {
            "value": ""
        },
        "area": {
            "value": ""
        },
        "areasize": {
            "value": ""
        },
        "category": {
            "value": "focus"
        },
        "components": {
            "material": false,
            "somatic": true,
            "verbal": false
        },
        "cost": {
            "value": ""
        },
        "damage": {
            "value": {
                "0": {
                    "type": {
                        "categories": [],
                        "value": "negative"
                    },
                    "value": "1d6"
                }
            }
        },
        "description": {
            "value": "<p>You infuse the target with negative energy. If the target is living, this deals 1d6 negative negative damage (basic Fortitude save); on a failed save, the target also takes a -2 status penalty to AC for 1 round.</p>\n<p>@Compendium[pf2e.spell-effects.Spell Effect: Touch of Corruption]{Spell Effect: Touch of Corruption}</p>\n<p>If the target is a willing undead creature, the target instead regains 6 Hit Points, and if you are the undead target, you also gain a +2 status bonus to damage rolls for 1 round.</p>\n<p><em>@Compendium[pf2e.spells-srd.Touch of Corruption (Healing)]{Touch of Corruption (Healing)}</em></p>\n<hr />\n<p><strong>Heightened (+1)</strong> Increase the damage dealt to a living creature by 1d6 or increase the Hit Points regained by undead by 6.</p>"
        },
        "duration": {
            "value": ""
        },
        "hasCounteractCheck": {
            "value": false
        },
        "level": {
            "value": 1
        },
        "location": {
            "value": ""
        },
        "materials": {
            "value": ""
        },
        "prepared": {
            "value": ""
        },
        "primarycheck": {
            "value": ""
        },
        "range": {
            "value": "touch"
        },
        "rules": [],
        "save": {
            "basic": "basic",
            "value": "fortitude"
        },
        "scaling": {
            "damage": {
                "0": "1d6"
            },
            "interval": 1
        },
        "school": {
            "value": "necromancy"
        },
        "secondarycasters": {
            "value": ""
        },
        "secondarycheck": {
            "value": ""
        },
        "source": {
            "value": "Pathfinder Advanced Player's Guide"
        },
        "spellType": {
            "value": "save"
        },
        "sustained": {
            "value": false
        },
        "target": {
            "value": "1 willing undead creature or 1 living creature"
        },
        "time": {
            "value": "1"
        },
        "traditions": {
            "value": []
        },
        "traits": {
            "custom": "",
            "rarity": {
                "value": "uncommon"
            },
            "value": []
        }
    },
    "effects": [],
    "flags": {},
    "img": "systems/pf2e/icons/spells/touch-of-corruption.webp",
    "name": "Touch of Corruption",
    "type": "spell"
}
