{
    "_id": "kIwA7kwp5E0AC3yM",
    "data": {
        "ability": {
            "value": ""
        },
        "area": {
            "areaType": "",
            "value": ""
        },
        "autoHeightenLevel": {
            "value": null
        },
        "category": {
            "value": "spell"
        },
        "components": {
            "focus": false,
            "material": false,
            "somatic": true,
            "verbal": true
        },
        "cost": {
            "value": ""
        },
        "damage": {
            "value": {
                "0": {
                    "applyMod": false,
                    "type": {
                        "categories": [],
                        "subtype": "",
                        "value": "untyped"
                    },
                    "value": "1d8"
                }
            }
        },
        "description": {
            "value": "<p>Regret eats away at the target's mind, punishing it for its violence until it ceases its hostility. The target must attempt a Will save.</p>\n<hr />\n<p><strong>Critical Success</strong> The target is unaffected.</p>\n<p><strong>Success</strong> At the end of its next turn, the target takes 1d8 damage per different creature it intentionally damaged on that turn (1d8 if it damaged one creature, 2d8 if it damaged two different creatures, and so on). The maximum is 4d8 if it damaged 4 different creatures.</p>\n<p><strong>Failure</strong> As success, except the curse damages the target at the end of each of its turns and lasts until the target spends a complete round without intentionally damaging another creature.</p>\n<p><strong>Critical Failure</strong> As success, except the curse damages the target at the end of each of its turns and lasts until the target spends 24 hours atoning for its perceived sins.</p>\n<hr />\n<p><strong>Heightened (+2)</strong> The amount of mental damage the target takes for each creature it damaged that turn increases by 1d8, and the maximum damage the target can take per turn increases by 4d8.</p>"
        },
        "duration": {
            "value": ""
        },
        "hasCounteractCheck": {
            "value": false
        },
        "level": {
            "value": 2
        },
        "location": {
            "value": ""
        },
        "materials": {
            "value": ""
        },
        "range": {
            "value": "touch"
        },
        "rules": [],
        "save": {
            "basic": "",
            "value": "will"
        },
        "scaling": {
            "damage": {
                "0": "1d8"
            },
            "interval": 2
        },
        "school": {
            "value": "enchantment"
        },
        "source": {
            "value": "Pathfinder Secrets of Magic"
        },
        "spellType": {
            "value": "save"
        },
        "sustained": {
            "value": false
        },
        "target": {
            "value": "1 creature"
        },
        "time": {
            "value": "2"
        },
        "traditions": {
            "custom": "",
            "value": [
                "arcane",
                "divine",
                "occult"
            ]
        },
        "traits": {
            "custom": "",
            "rarity": {
                "value": "common"
            },
            "value": [
                "curse",
                "emotion",
                "mental"
            ]
        }
    },
    "effects": [],
    "flags": {},
    "img": "systems/pf2e/icons/spells/warriors-regret.webp",
    "name": "Warrior's Regret",
    "type": "spell"
}
