{
    "_id": "hOPOyyt7qZXYYCOU",
    "data": {
        "actionCategory": {
            "value": ""
        },
        "actionType": {
            "value": "passive"
        },
        "actions": {
            "value": null
        },
        "description": {
            "value": "<p>Your family has always seemed to bound back from disaster, not through physical hardiness or specialized skill, but from sheer luck. Other catfolk whisper that you have nine lives.</p>\n<p>If you are reduced to 0 Hit Points by a critical hit on an attack roll, you become @Compendium[pf2e.conditionitems.Dying]{Dying 1} instead of dying 2.</p>"
        },
        "featType": {
            "value": "heritage"
        },
        "level": {
            "value": 1
        },
        "location": "",
        "prerequisites": {
            "value": []
        },
        "rules": [],
        "source": {
            "value": ""
        },
        "traits": {
            "custom": "",
            "rarity": {
                "value": "common"
            },
            "value": [
                "catfolk"
            ]
        }
    },
    "effects": [],
    "flags": {},
    "img": "systems/pf2e/icons/features/ancestry/nine-lives-catfolk.webp",
    "name": "Nine Lives Catfolk",
    "type": "feat"
}
