{
    "_id": "6VrKQ0PhRXuteusQ",
    "data": {
        "description": {
            "value": ""
        },
        "duration": {
            "expiry": "turn-start",
            "sustained": false,
            "unit": "unlimited",
            "value": -1
        },
        "level": {
            "value": 1
        },
        "rules": [
            {
                "key": "CreatureSize",
                "value": "large"
            },
            {
                "key": "ActiveEffectLike",
                "mode": "add",
                "path": "data.attributes.reach.value",
                "value": 5
            },
            {
                "key": "ActiveEffectLike",
                "mode": "add",
                "path": "data.attributes.reach.manipulate",
                "value": 5
            },
            {
                "key": "FlatModifier",
                "label": "Giant's Stature",
                "selector": "dex-based",
                "type": "status",
                "value": -1
            }
        ],
        "source": {
            "value": ""
        },
        "start": {
            "initiative": null,
            "value": 0
        },
        "target": null,
        "tokenIcon": {
            "show": true
        },
        "traits": {
            "custom": "",
            "rarity": {
                "value": "common"
            },
            "value": []
        }
    },
    "effects": [],
    "flags": {},
    "img": "systems/pf2e/icons/features/feats/giants-stature.webp",
    "name": "Effect: Giant's Stature",
    "type": "effect"
}
