{
    "_id": "OxOMYmlPtjsEkRtY",
    "data": {
        "description": {
            "value": "<p>The captain of the guard bolsters lower-level guards under their command, granting them a +1 status bonus to their attack rolls and a +2 status bonus to their Will saves.</p>"
        },
        "duration": {
            "expiry": "turn-start",
            "sustained": false,
            "unit": "unlimited",
            "value": -1
        },
        "level": {
            "value": 1
        },
        "rules": [
            {
                "key": "FlatModifier",
                "selector": "attack",
                "type": "status",
                "value": 1
            },
            {
                "key": "FlatModifier",
                "selector": "will",
                "type": "status",
                "value": 2
            }
        ],
        "source": {
            "value": "Pathfinder Gamemastery Guide"
        },
        "start": {
            "initiative": null,
            "value": 0
        },
        "target": null,
        "tokenIcon": {
            "show": true
        },
        "traits": {
            "custom": "",
            "rarity": {
                "value": "common"
            },
            "value": []
        }
    },
    "effects": [],
    "flags": {},
    "img": "systems/pf2e/icons/spells/anima-invocation.webp",
    "name": "Effect: Aura of Command",
    "type": "effect"
}
