{
    "_id": "vKTvlFD2OSgTPuvl",
    "data": {
        "description": {
            "value": "<p><strong>Requirements</strong>: The demonologist's last action was to cast a non-cantrip spell;</p>\n<p><strong>Effect</strong>: The demonologist siphons energy drawn from the Abyss into their weapon. Until the end of the turn, the weapon deals an extra [[/r {2d6}[electricity]]]{2d6 electricity damage}.</p>\n<p>The damage type chosen randomly was Electricity.</p>"
        },
        "duration": {
            "expiry": "turn-end",
            "sustained": false,
            "unit": "rounds",
            "value": 1
        },
        "level": {
            "value": 1
        },
        "rules": [
            {
                "damageType": "electricity",
                "diceNumber": 2,
                "dieSize": "d6",
                "key": "DamageDice",
                "selector": "damage"
            }
        ],
        "source": {
            "value": "Pathfinder Gamemastery Guide"
        },
        "start": {
            "initiative": null,
            "value": 0
        },
        "target": null,
        "tokenIcon": {
            "show": true
        },
        "traits": {
            "custom": "",
            "rarity": {
                "value": "common"
            },
            "value": []
        }
    },
    "effects": [],
    "flags": {},
    "img": "systems/pf2e/icons/spells/aberrant-whispers.webp",
    "name": "Effect: Breach the Abyss - Electricity",
    "type": "effect"
}
