{
    "_id": "ftJgbv638qcidZk0",
    "content": "<p>Play this after rolling a check.</p>\n<hr />\n<p>Reroll the check twice and take the best result. This is a fortune effect. If you still fail this check, you become @Compendium[pf2e.conditionitems.Doomed]{Doomed 1}.</p>",
    "flags": {},
    "name": "Critical Moment",
    "permission": {
        "default": 0
    }
}
