{
    "_id": "yUi0ENJP5sgnyPyp",
    "content": "<p>Play during your turn.</p>\n<hr />\n<p>Until the end of your turn, you can Activate one magic item that you have already activated once today. This activation doesn't count against the item's frequency limit if the limit is once per day, or a shorter increment of time. If the item is a wand, activating it this way doesn't overcharge it.</p>",
    "flags": {},
    "name": "Surge of Magic",
    "permission": {
        "default": 0
    }
}
