{
    "_id": "Qlvei5jjRXdsXUPo",
    "data": {
        "attributes": {
            "ac": {
                "check": 0,
                "details": "",
                "value": 19
            },
            "collisionDC": {
                "value": 22
            },
            "collisionDamage": {
                "value": "4d10"
            },
            "hardness": 10,
            "hp": {
                "brokenThreshold": 5,
                "details": "",
                "max": 100,
                "temp": 0,
                "value": 100
            }
        },
        "details": {
            "AC": 0,
            "crew": "1 pilot, 3 crew",
            "description": "",
            "level": {
                "value": 6
            },
            "passengers": "6",
            "pilotingCheck": "Nature (DC 24) or Sailing Lore (DC 22)",
            "price": 750,
            "space": {
                "high": 20,
                "long": 30,
                "wide": 15
            },
            "speed": "Swim 30 feet (Wind)"
        },
        "saves": {
            "fortitude": {
                "item": 0,
                "rank": 0,
                "saveDetail": "",
                "value": 14
            }
        },
        "source": {
            "value": "Pathfinder Lost Omens: The Grand Bazaar"
        },
        "traits": {
            "ci": [],
            "di": {
                "custom": "",
                "value": [
                    "object-immunities"
                ]
            },
            "dr": [],
            "dv": [
                {
                    "type": "fire",
                    "value": 10
                }
            ],
            "rarity": {
                "value": "common"
            },
            "size": {
                "value": "huge"
            },
            "traits": {
                "custom": "",
                "value": []
            }
        }
    },
    "effects": [],
    "flags": {},
    "img": "systems/pf2e/icons/default-icons/vehicle.svg",
    "items": [
        {
            "_id": "RJf32Bczb9zQaFqs",
            "data": {
                "actionCategory": {
                    "value": ""
                },
                "actionType": {
                    "value": "passive"
                },
                "actions": {
                    "value": null
                },
                "description": {
                    "value": "<p>This vehicle must move twice its length for each 90-degree turn it makes.</p>"
                },
                "requirements": {
                    "value": ""
                },
                "rules": [],
                "slug": null,
                "source": {
                    "value": ""
                },
                "traits": {
                    "custom": "",
                    "rarity": {
                        "value": "common"
                    },
                    "value": []
                },
                "trigger": {
                    "value": ""
                }
            },
            "effects": [],
            "flags": {},
            "img": "systems/pf2e/icons/actions/Passive.webp",
            "name": "Sluggish",
            "sort": 0,
            "type": "action"
        }
    ],
    "name": "Cutter",
    "token": {
        "disposition": 0,
        "height": 6,
        "img": "systems/pf2e/icons/default-icons/vehicle.svg",
        "name": "Cutter",
        "width": 3
    },
    "type": "vehicle"
}
